…
Verify that all ride lengths are positive and that there are no empty
values.

```R
    #search for negative values, less than 1 or grater than one day (1440 minutes)
    sum((annual_data$ride_length<=0))

    ## [1] 1269

    annual_data_v2 %>%
      filter(ride_length<=0 | ride_length  > 1440)

    ## # A tibble: 702 × 19
    ##    ride_id          rideable_type started_at          ended_at
    ##    <chr>            <chr>         <dttm>              <dttm>
    ##  1 F4F4A74BF1FB016D classic_bike  2023-01-06 15:59:56 2023-01-07 16:41:17
    ##  2 3F5B7E5AD8A6FE18 electric_bike 2023-01-17 08:31:49 2023-01-17 08:31:49
    ##  3 5394CACAFE68B950 electric_bike 2023-01-05 09:10:39 2023-01-05 09:10:39
    ##  4 4AE8A56D4F625567 electric_bike 2023-01-05 16:53:43 2023-01-05 16:53:43
    ##  5 C42B78BC641B2610 docked_bike   2023-01-10 14:49:17 2023-01-11 14:52:22
    ##  6 171805AF2A8BD1AF classic_bike  2023-01-18 20:48:35 2023-01-19 21:14:52
    ##  7 AB6BF61F4BB57AAB electric_bike 2023-01-08 14:27:26 2023-01-08 14:27:26
    ##  8 89AB3E68A1FE1D42 classic_bike  2023-01-13 18:00:46 2023-01-14 18:58:38
    ##  9 D591DA5ED36A2F38 classic_bike  2023-01-11 13:36:04 2023-01-12 14:09:39
    ## 10 6B3734E0279EB5A6 electric_bike 2023-02-19 17:52:09 2023-02-19 17:52:09
    ## # ℹ 692 more rows
    ## # ℹ 15 more variables: start_station_name <chr>, start_station_id <chr>,
    ## #   end_station_name <chr>, end_station_id <chr>, start_lat <dbl>,
    ## #   start_lng <dbl>, end_lat <dbl>, end_lng <dbl>, user_type <chr>,
    ## #   ride_length <dbl>, date <date>, month <chr>, day <chr>, year <chr>,
    ## #   day_of_week <chr>
…
